pm566 Midterm
…
Arrest2010 %>% group_by(Area.Name) %>%
  summarise(
    Age_avg = mean(Age, na.rm = TRUE), 
    Age_sd = sd(Age, na.rm = TRUE),
    Male_prop = paste0(round(100*sum(SexCode, na.rm = TRUE)/length(SexCode), 2), '%'),
    Female_prop = paste0(round(100-100*sum(SexCode, na.rm = TRUE)/length(SexCode), 2), '%')
  ) %>% arrange(Area.Name)

## `summarise()` ungrouping output (override with `.groups` argument)

## # A tibble: 21 x 5
##    Area.Name   Age_avg Age_sd Male_prop Female_prop
##    <fct>         <dbl>  <dbl> <chr>     <chr>      
##  1 77th Street    32.3   14.0 75.14%    24.86%     
##  2 Central        40.1   12.7 80.02%    19.98%     
##  3 Devonshire     29.2   13.0 70.24%    29.76%     
##  4 Foothill       32.3   13.1 81.05%    18.95%     
##  5 Harbor         30.8   14.2 78.08%    21.92%     
##  6 Hollenbeck     30.9   13.8 85.27%    14.73%     
##  7 Hollywood      30.8   11.6 82.69%    17.31%     
##  8 Mission        28.4   12.9 82.4%     17.6%      
##  9 N Hollywood    30.3   12.5 79.8%     20.2%      
## 10 Newton         33.5   14.4 81.31%    18.69%     
## #  with 11 more rows
…
Arrest2019 %>% group_by(Area.Name) %>%
  summarise(
    Age_avg = mean(Age, na.rm = TRUE), 
    Age_sd = sd(Age, na.rm = TRUE),
    Male_prop = paste0(round(100*sum(SexCode, na.rm = TRUE)/length(SexCode), 2), '%'),
    Female_prop = paste0(round(100-100*sum(SexCode, na.rm = TRUE)/length(SexCode), 2), '%')
  ) %>% arrange(Area.Name)

## `summarise()` ungrouping output (override with `.groups` argument)

## # A tibble: 21 x 5
##    Area.Name   Age_avg Age_sd Male_prop Female_prop
##    <fct>         <dbl>  <dbl> <chr>     <chr>      
##  1 77th Street    31.8   12.7 67.95%    32.05%     
##  2 Central        40.0   13.6 81.87%    18.13%     
##  3 Devonshire     33.9   13.4 71.93%    28.07%     
##  4 Foothill       34.4   12.1 80.94%    19.06%     
##  5 Harbor         35.4   13.1 74.09%    25.91%     
##  6 Hollenbeck     33.1   12.6 81.74%    18.26%     
##  7 Hollywood      33.1   11.1 81.7%     18.3%      
##  8 Mission        33.0   11.9 80.61%    19.39%     
##  9 N Hollywood    35.8   12.0 78.88%    21.12%     
## 10 Newton         34.8   12.9 81.69%    18.31%     
## #  with 11 more rows
…
